{
    "posts": [
        {
            "id": "1",
            "parent": "0",
            "timestamp": "1617507351",
            "bumped": "1617507351",
            "name": "Shaun",
            "tripcode": "",
            "subject": "Baaaaaaaa",
            "message": "I'm off to Sweden!<br>",
            "file": "1617507351726.jpg",
            "file_hex": "31920e45fae5d2b11884c627b5175acd",
            "file_original": "STS-SkanesDjurparkHR.jpg",
            "file_size": "63510",
            "file_size_formated": "62.02KB",
            "image_width": "615",
            "image_height": "407",
            "thumb": "1617507351726s.jpg",
            "thumb_width": "250",
            "thumb_height": "165",
            "stickied": "0",
            "locked": "0",
            "replies": 0,
            "images": 1
        },
        {
            "id": "2",
            "parent": "0",
            "timestamp": "1617507712",
            "bumped": "1617507712",
            "name": "Pigbot",
            "tripcode": "",
            "subject": "",
            "message": "\"No one was behaving from very Buddhist motives. Then, thought Pigsy, he was hardly a Buddha, nor was he a monkey or a sheep. Presently, he was a pig spirit changed into a little girl pretending to be a little boy to be offered to a water monster. It was all very simple to a pig spirit.\"<br>\"Perhaps all creatures are very much more than what they seem. The tree has its roots; the iceberg only shows its tip. Perhaps we are all much more even than we know. So, while the meanest peasant lives in misery here, he may be elsewhere in triumph, making the very stars.\"<br>",
            "file": "1617507711972.png",
            "file_hex": "a3dc5a54b9fbccbd702619f4fd02deb9",
            "file_original": "pigbot_rgb.png",
            "file_size": "11488",
            "file_size_formated": "11.22KB",
            "image_width": "1042",
            "image_height": "1042",
            "thumb": "1617507711972s.png",
            "thumb_width": "250",
            "thumb_height": "250",
            "stickied": "0",
            "locked": "0",
            "replies": 0,
            "images": 1
        },
        {
            "id": "3",
            "parent": "0",
            "timestamp": "1617508079",
            "bumped": "1617508079",
            "name": "Anonymous",
            "tripcode": "",
            "subject": "",
            "message": "Jo: [sheep flies by in the storm while in Bill's truck] Sheep.<br>[sheep flies by in the storm]<br>Jo: another sheep.<br><br>Bill: Actually I think that was the same one.<br>",
            "file": "1617508079856.png",
            "file_hex": "2b40721e05cd9d29ec95ad35838a9653",
            "file_original": "twister.png",
            "file_size": "525720",
            "file_size_formated": "513.40KB",
            "image_width": "768",
            "image_height": "418",
            "thumb": "1617508079856s.png",
            "thumb_width": "250",
            "thumb_height": "136",
            "stickied": "0",
            "locked": "0",
            "replies": 0,
            "images": 1
        },
        {
            "id": "4",
            "parent": "0",
            "timestamp": "1617514798",
            "bumped": "1617514798",
            "name": "( \u0361\u00b0 \u035c\u0296 \u0361\u00b0)",
            "tripcode": "",
            "subject": "",
            "message": "<br>",
            "file": "<iframe width=\"200\" height=\"113\" src=\"\/\/www.youtube.com\/embed\/nZBJnSvGAf0?feature=oembed\" frameborder=\"0\" allow=\"accelerometer; autoplay; clipboard-write; encrypted-media; gyroscope; picture-in-picture\" allowfullscreen><\/iframe>",
            "file_hex": "YouTube",
            "file_original": "Among Us distraction dance animation",
            "file_size": "0",
            "file_size_formated": "",
            "image_width": "480",
            "image_height": "360",
            "thumb": "1617514798593.jpg",
            "thumb_width": "250",
            "thumb_height": "188",
            "stickied": "0",
            "locked": "0",
            "replies": 0,
            "images": 1
        }
    ]
}